<?xml version="1.0" encoding="utf-8"?>
<!-- Generator: Adobe Illustrator 16.0.0, SVG Export Plug-In . SVG Version: 6.00 Build 0)  -->
<!DOCTYPE svg PUBLIC "-//W3C//DTD SVG 1.1//EN" "http://www.w3.org/Graphics/SVG/1.1/DTD/svg11.dtd">
<svg version="1.1" id="Layer_1" xmlns="http://www.w3.org/2000/svg" xmlns:xlink="http://www.w3.org/1999/xlink" x="0px" y="0px"
	 width="12px" height="32px" viewBox="0 0 12 32" enable-background="new 0 0 12 32" xml:space="preserve">
<path d="M6,0C2.457,1.774,0,5.579,0,10s2.457,8.226,6,10c3.543-1.773,6-5.578,6-10S9.543,1.774,6,0z"/>
<path d="M12,30.9c0,0.607-0.537,1.1-1.199,1.1H1.2C0.538,32,0,31.508,0,30.9V11.1C0,10.493,0.538,10,1.2,10h9.601
	C11.463,10,12,10.493,12,11.1V30.9z"/>
<path fill="#FFFFFF" d="M10,12.889C10,13.502,9.553,14,9,14H3c-0.552,0-1-0.498-1-1.111V5.111C2,4.498,2.448,4,3,4h6
	c0.553,0,1,0.498,1,1.111V12.889z"/>
<path fill="#666666" d="M9,11c0,0.552-0.447,1-1,1H4c-0.552,0-1-0.448-1-1V7c0-0.552,0.448-1,1-1h4c0.553,0,1,0.448,1,1V11z"/>
<rect x="2" y="10" fill="#666666" width="8" height="4"/>
<path fill="#666666" d="M11,24.8c0-0.442-0.448-0.8-1-0.8H8c-0.552,0-1,0.357-1,0.8v2.4C7,27.643,7.448,28,8,28h2
	c0.552,0,1-0.357,1-0.8V24.8z"/>
<polygon fill="#FFFFFF" points="11,31 11,31 1,31 1,31 1,29 1,29 11,29 11,29 "/>
<polygon fill="#FFFFFF" points="5,23 5,23 1,23 1,23 1,15 1,15 5,15 5,15 "/>
<polygon fill="#FFFFFF" points="10,21 10,21 6,21 6,21 6,15 6,15 10,15 10,15 "/>
</svg>
