<?xml version="1.0" encoding="UTF-8"?>
<kml xmlns="http://www.opengis.net/kml/2.2" xmlns:gx="http://www.google.com/kml/ext/2.2" xmlns:kml="http://www.opengis.net/kml/2.2" xmlns:atom="http://www.w3.org/2005/Atom">
	<Folder>
		<name>CTD Stations</name>
        <open>1</open>
		
		<Document>
			<name>line</name>                
			<Placemark>
				<name>R/V Carson CTD Stations</name>
				<LineString>                         
					<tessellate>1</tessellate> 
					<coordinates>
						-118.01,33.621,0 -118.0375,33.5854,0 -118.0633,33.5523 -118.05,33.5695 -118.0633,33.5523,0 -118.0767,33.5352,0 -118.09,33.518,0 -118.09,33.518,0 
					</coordinates>
				</LineString> 
			</Placemark>
		</Document>
	</Folder> 
</kml>
