<?xml version="1.0" encoding="UTF-8"?>
<kml xmlns="http://www.opengis.net/kml/2.2" xmlns:gx="http://www.google.com/kml/ext/2.2" xmlns:kml="http://www.opengis.net/kml/2.2" xmlns:atom="http://www.w3.org/2005/Atom">
<Folder>
	<name>SCB_ShippingLanes</name>
	<open>1</open>
	<Document>
		<name>LA Shipping Lanes 1.kmz</name>
		<open>1</open>
		<StyleMap id="msn_ylw-pushpin70">
			<Pair>
				<key>normal</key>
				<styleUrl>#sn_ylw-pushpin900</styleUrl>
			</Pair>
			<Pair>
				<key>highlight</key>
				<styleUrl>#sh_ylw-pushpin300</styleUrl>
			</Pair>
		</StyleMap>
		<Style id="sh_ylw-pushpin300">
			<IconStyle>
				<scale>1.3</scale>
				<Icon>
					<href>http://maps.google.com/mapfiles/kml/pushpin/ylw-pushpin.png</href>
				</Icon>
				<hotSpot x="20" y="2" xunits="pixels" yunits="pixels"/>
			</IconStyle>
			<LineStyle>
				<color>ff00ffff</color>
				<width>2</width>
			</LineStyle>
		</Style>
		<Style id="sn_ylw-pushpin900">
			<IconStyle>
				<scale>1.1</scale>
				<Icon>
					<href>http://maps.google.com/mapfiles/kml/pushpin/ylw-pushpin.png</href>
				</Icon>
				<hotSpot x="20" y="2" xunits="pixels" yunits="pixels"/>
			</IconStyle>
			<LineStyle>
				<color>ff00ffff</color>
				<width>2</width>
			</LineStyle>
		</Style>
		<Placemark>
			<name>LA Shipping Lanes 1</name>
			<open>1</open>
			<styleUrl>#msn_ylw-pushpin70</styleUrl>
			<LineString>
				<tessellate>1</tessellate>
				<coordinates>
					-118.0369510977361,33.33632609046607,0 -118.1491758119339,33.59170850954585,0 -118.2314387123455,33.59238508371692,0 -118.1115204831962,33.31542578528782,0 -118.2305986107669,33.59098694850845,0 -118.3875588617069,33.59221939950248,0 -118.5678551160568,33.67653524684171,0 -118.566628996089,33.75151368824108,0 -118.3423436053338,33.64474149891709,0 -118.292784676438,33.6447925623817,0 -118.2936936034114,33.69442215798006,0 
				</coordinates>
			</LineString>
		</Placemark>
		<name>Separation Lane North.kmz</name>
		<StyleMap id="msn_ylw-pushpin400">
			<Pair>
				<key>normal</key>
				<styleUrl>#sn_ylw-pushpin200</styleUrl>
			</Pair>
			<Pair>
				<key>highlight</key>
				<styleUrl>#sh_ylw-pushpin500</styleUrl>
			</Pair>
		</StyleMap>
		<Style id="sh_ylw-pushpin500">
			<IconStyle>
				<scale>1.3</scale>
				<Icon>
					<href>http://maps.google.com/mapfiles/kml/pushpin/ylw-pushpin.png</href>
				</Icon>
				<hotSpot x="20" y="2" xunits="pixels" yunits="pixels"/>
			</IconStyle>
			<LineStyle>
				<color>ff00ffff</color>
				<width>2</width>
			</LineStyle>
			<PolyStyle>
				<color>7fffffff</color>
			</PolyStyle>
		</Style>
		<Style id="sn_ylw-pushpin200">
			<IconStyle>
				<scale>1.1</scale>
				<Icon>
					<href>http://maps.google.com/mapfiles/kml/pushpin/ylw-pushpin.png</href>
				</Icon>
				<hotSpot x="20" y="2" xunits="pixels" yunits="pixels"/>
			</IconStyle>
			<LineStyle>
				<color>ff00ffff</color>
				<width>2</width>
			</LineStyle>
			<PolyStyle>
				<color>7fffffff</color>
			</PolyStyle>
		</Style>
		<Placemark>
			<name>Separation Lane North</name>
			<styleUrl>#msn_ylw-pushpin400</styleUrl>
			<Polygon>
				<tessellate>1</tessellate>
				<outerBoundaryIs>
					<LinearRing>
						<coordinates>
							-118.5681988594423,33.73258577755773,0 -118.5679538883672,33.69264657194294,0 -118.3892943938886,33.61179991105176,0 -118.2918940467472,33.6105219953095,0 -118.2936003689439,33.62870433111841,0 -118.3465073888716,33.62864806357553,0 -118.5681988594423,33.73258577755773,0 
						</coordinates>
					</LinearRing>
				</outerBoundaryIs>
			</Polygon>
		</Placemark>
		<name>Separation Lane - South.kmz</name>
		<Style id="sh_ylw-pushpin60">
			<IconStyle>
				<scale>1.3</scale>
				<Icon>
					<href>http://maps.google.com/mapfiles/kml/pushpin/ylw-pushpin.png</href>
				</Icon>
				<hotSpot x="20" y="2" xunits="pixels" yunits="pixels"/>
			</IconStyle>
			<LineStyle>
				<color>ff00ffff</color>
				<width>2</width>
			</LineStyle>
			<PolyStyle>
				<color>7fffffff</color>
			</PolyStyle>
		</Style>
		<Style id="sn_ylw-pushpin00000">
			<IconStyle>
				<scale>1.1</scale>
				<Icon>
					<href>http://maps.google.com/mapfiles/kml/pushpin/ylw-pushpin.png</href>
				</Icon>
				<hotSpot x="20" y="2" xunits="pixels" yunits="pixels"/>
			</IconStyle>
			<LineStyle>
				<color>ff00ffff</color>
				<width>2</width>
			</LineStyle>
			<PolyStyle>
				<color>7fffffff</color>
			</PolyStyle>
		</Style>
		<StyleMap id="msn_ylw-pushpin0000">
			<Pair>
				<key>normal</key>
				<styleUrl>#sn_ylw-pushpin00000</styleUrl>
			</Pair>
			<Pair>
				<key>highlight</key>
				<styleUrl>#sh_ylw-pushpin60</styleUrl>
			</Pair>
		</StyleMap>
		<Placemark>
			<name>Separation Lane - South</name>
			<styleUrl>#msn_ylw-pushpin0000</styleUrl>
			<Polygon>
				<tessellate>1</tessellate>
				<outerBoundaryIs>
					<LinearRing>
						<coordinates>
							-118.0579027907349,33.33215811066941,0 -118.1676453299802,33.59100825947883,0 -118.212973768084,33.59099448180653,0 -118.0922553064785,33.32170369332848,0 -118.0579027907349,33.33215811066941,0 
						</coordinates>
					</LinearRing>
				</outerBoundaryIs>
			</Polygon>
		</Placemark>
	</Document>
</Folder>
</kml>
