<?xml version='1.0' encoding='UTF-8'?><kml xmlns='http://earth.google.com/kml/2.2'><Folder>
<Placemark><name>FF76FF89</name><TimeStamp><when>2013-09-10T10:31:12+07:00</when></TimeStamp><Point><altitudeMode>absolute</altitudeMode><coordinates>-122.357,36.7003,-0.59558</coordinates></Point></Placemark>
<Placemark><name>FF76FF89</name><TimeStamp><when>2013-09-10T10:31:23+07:00</when></TimeStamp><Point><altitudeMode>absolute</altitudeMode><coordinates>-122.357,36.7003,-1.886</coordinates></Point></Placemark>
<Placemark><name>FFB1FF4E</name><TimeStamp><when>2013-09-10T11:47:31+07:00</when></TimeStamp><Point><altitudeMode>absolute</altitudeMode><coordinates>-122.3498,36.692,-0.29779</coordinates></Point></Placemark>
<Placemark><name>FFB1FF4E</name><TimeStamp><when>2013-09-10T11:47:43+07:00</when></TimeStamp><Point><altitudeMode>absolute</altitudeMode><coordinates>-122.3498,36.692,-1.4889</coordinates></Point></Placemark>
<Placemark><name>FFC4FF3B</name><TimeStamp><when>2013-09-10T13:02:24+07:00</when></TimeStamp><Point><altitudeMode>absolute</altitudeMode><coordinates>-122.3422,36.6847,-0.19853</coordinates></Point></Placemark>
<Placemark><name>FFD8FF27</name><TimeStamp><when>2013-09-10T13:02:35+07:00</when></TimeStamp><Point><altitudeMode>absolute</altitudeMode><coordinates>-122.3422,36.6847,-1.2904</coordinates></Point></Placemark>
<Placemark><name>FFFFAA00</name><TimeStamp><when>2013-09-10T14:15:50+07:00</when></TimeStamp><Point><altitudeMode>absolute</altitudeMode><coordinates>-122.3345,36.6787,-0.99263</coordinates></Point></Placemark>
<Placemark><name>FFFF8E00</name><TimeStamp><when>2013-09-10T14:16:02+07:00</when></TimeStamp><Point><altitudeMode>absolute</altitudeMode><coordinates>-122.3345,36.6787,-1.9853</coordinates></Point></Placemark>
<Placemark><name>FFFF5500</name><TimeStamp><when>2013-09-10T15:27:50+07:00</when></TimeStamp><Point><altitudeMode>absolute</altitudeMode><coordinates>-122.3275,36.6732,-0.89337</coordinates></Point></Placemark>
<Placemark><name>FFFF5500</name><TimeStamp><when>2013-09-10T15:28:02+07:00</when></TimeStamp><Point><altitudeMode>absolute</altitudeMode><coordinates>-122.3275,36.6732,-1.886</coordinates></Point></Placemark>
<Placemark><name>FFFF0000</name><TimeStamp><when>2013-09-10T16:42:43+07:00</when></TimeStamp><Point><altitudeMode>absolute</altitudeMode><coordinates>-122.3223,36.667,-0.39705</coordinates></Point></Placemark>
<Placemark><name>FFFF0000</name><TimeStamp><when>2013-09-10T16:42:55+07:00</when></TimeStamp><Point><altitudeMode>absolute</altitudeMode><coordinates>-122.3223,36.667,-1.5882</coordinates></Point></Placemark>
<Placemark><name>FFFF5500</name><TimeStamp><when>2013-09-10T17:57:36+07:00</when></TimeStamp><Point><altitudeMode>absolute</altitudeMode><coordinates>-122.3143,36.6588,-0.79411</coordinates></Point></Placemark>
<Placemark><name>FFFF7100</name><TimeStamp><when>2013-09-10T17:57:48+07:00</when></TimeStamp><Point><altitudeMode>absolute</altitudeMode><coordinates>-122.3143,36.6588,-1.9853</coordinates></Point></Placemark>
<Placemark><name>FFFF5500</name><TimeStamp><when>2013-09-10T19:09:36+07:00</when></TimeStamp><Point><altitudeMode>absolute</altitudeMode><coordinates>-122.3043,36.653,-0.49632</coordinates></Point></Placemark>
<Placemark><name>FFFF3900</name><TimeStamp><when>2013-09-10T19:09:48+07:00</when></TimeStamp><Point><altitudeMode>absolute</altitudeMode><coordinates>-122.3043,36.653,-1.5882</coordinates></Point></Placemark>
<Placemark><name>FFFFE300</name><TimeStamp><when>2013-09-10T20:25:55+07:00</when></TimeStamp><Point><altitudeMode>absolute</altitudeMode><coordinates>-122.2918,36.6607,-0.79411</coordinates></Point></Placemark>
<Placemark><name>FFFFC600</name><TimeStamp><when>2013-09-10T20:26:07+07:00</when></TimeStamp><Point><altitudeMode>absolute</altitudeMode><coordinates>-122.2918,36.6607,-1.9853</coordinates></Point></Placemark>
<Placemark><name>FFFFC600</name><TimeStamp><when>2013-09-10T21:40:48+07:00</when></TimeStamp><Point><altitudeMode>absolute</altitudeMode><coordinates>-122.2782,36.667,-0.19853</coordinates></Point></Placemark>
<Placemark><name>FFFFC600</name><TimeStamp><when>2013-09-10T21:41:00+07:00</when></TimeStamp><Point><altitudeMode>absolute</altitudeMode><coordinates>-122.2782,36.667,-1.2904</coordinates></Point></Placemark>
<Placemark><name>FFFFAA00</name><TimeStamp><when>2013-09-10T22:57:07+07:00</when></TimeStamp><Point><altitudeMode>absolute</altitudeMode><coordinates>-122.2637,36.6738,-0.79411</coordinates></Point></Placemark>
<Placemark><name>FFFFAA00</name><TimeStamp><when>2013-09-10T22:57:20+07:00</when></TimeStamp><Point><altitudeMode>absolute</altitudeMode><coordinates>-122.2636,36.6738,-1.7867</coordinates></Point></Placemark>
<Placemark><name>FFFFC600</name><TimeStamp><when>2013-09-11T00:16:19+07:00</when></TimeStamp><Point><altitudeMode>absolute</altitudeMode><coordinates>-122.2475,36.6803,-0.59558</coordinates></Point></Placemark>
<Placemark><name>FFFFC600</name><TimeStamp><when>2013-09-11T00:16:31+07:00</when></TimeStamp><Point><altitudeMode>absolute</altitudeMode><coordinates>-122.2475,36.6803,-1.7867</coordinates></Point></Placemark>
<Placemark><name>FFFFAA00</name><TimeStamp><when>2013-09-11T01:32:38+07:00</when></TimeStamp><Point><altitudeMode>absolute</altitudeMode><coordinates>-122.2295,36.6872,-0.69484</coordinates></Point></Placemark>
<Placemark><name>FFFF8E00</name><TimeStamp><when>2013-09-11T01:32:50+07:00</when></TimeStamp><Point><altitudeMode>absolute</altitudeMode><coordinates>-122.2294,36.6872,-1.7867</coordinates></Point></Placemark>
<Placemark><name>FFFFE300</name><TimeStamp><when>2013-09-11T02:48:57+07:00</when></TimeStamp><Point><altitudeMode>absolute</altitudeMode><coordinates>-122.2113,36.6943,-1.1912</coordinates></Point></Placemark>
<Placemark><name>FFFFAA00</name><TimeStamp><when>2013-09-11T04:05:16+07:00</when></TimeStamp><Point><altitudeMode>absolute</altitudeMode><coordinates>-122.1938,36.7018,-1.0919</coordinates></Point></Placemark>
<Placemark><name>FFFFC600</name><TimeStamp><when>2013-09-11T05:18:43+07:00</when></TimeStamp><Point><altitudeMode>absolute</altitudeMode><coordinates>-122.1767,36.7103,-0.89337</coordinates></Point></Placemark>
<Placemark><name>FFFF8E00</name><TimeStamp><when>2013-09-11T06:33:36+07:00</when></TimeStamp><Point><altitudeMode>absolute</altitudeMode><coordinates>-122.1602,36.7173,-1.0919</coordinates></Point></Placemark>
<Placemark><name>FFFF1C00</name><TimeStamp><when>2013-09-11T06:33:47+07:00</when></TimeStamp><Point><altitudeMode>absolute</altitudeMode><coordinates>-122.1602,36.7173,-1.9853</coordinates></Point></Placemark>
<Placemark><name>FFF50402</name><TimeStamp><when>2013-09-11T07:47:02+07:00</when></TimeStamp><Point><altitudeMode>absolute</altitudeMode><coordinates>-122.1472,36.7255,-0.99263</coordinates></Point></Placemark>
</Folder></kml>
