<?xml version="1.0" encoding="utf-8"?>
<!-- Generator: Adobe Illustrator 16.0.0, SVG Export Plug-In . SVG Version: 6.00 Build 0)  -->
<!DOCTYPE svg PUBLIC "-//W3C//DTD SVG 1.1//EN" "http://www.w3.org/Graphics/SVG/1.1/DTD/svg11.dtd">
<svg version="1.1" xmlns="http://www.w3.org/2000/svg" xmlns:xlink="http://www.w3.org/1999/xlink" x="0px" y="0px"
	 width="126.906px" height="60px" viewBox="0 0 126.906 60" enable-background="new 0 0 126.906 60" xml:space="preserve">
<g id="Layer_1" display="none">
	
		<image display="inline" overflow="visible" width="1200" height="801" xlink:href="../../2RVRachelCarsonweb-30751.jpg"  transform="matrix(0.0312 0 0 0.0312 45.4688 13.1641)">
	</image>
</g>
<g id="Layer_2">
	<rect y="52" width="64" height="8"/>
	<polygon fill="#999999" points="82.68,40 70.852,40 75.023,16 86.852,16 	"/>
	<g>
		<polygon points="65.758,40 65.648,40 58.908,60 120.062,60 125.449,44 64.365,44 		"/>
		<polygon fill="#808080" points="126.797,40 65.758,40 64.365,44 125.449,44 125.516,44 126.906,40 		"/>
	</g>
	<rect x="76" y="32" fill="#FFFFFF" width="32" height="8"/>
	<rect x="80" y="24" fill="#FFFFFF" width="24" height="8"/>
	<polygon fill="#999999" points="108.852,24 82.234,24 80.852,20 107.469,20 	"/>
	<path fill="#FCFCFC" d="M92,6c0,1.104-0.896,2-2,2l0,0c-1.104,0-2-0.896-2-2V2c0-1.104,0.896-2,2-2l0,0c1.104,0,2,0.896,2,2V6z"/>
	<rect x="88" y="4" fill="#999999" width="4" height="16"/>
	<rect x="8" y="40" width="12" height="12"/>
	<rect x="12" y="36" width="28" height="4"/>
	<rect x="28" y="44" fill="#ED1C24" width="16" height="4"/>
	<rect x="28" y="48" width="16" height="4"/>
	<polygon fill="#FFFDFD" points="40.027,33.824 42.029,38.914 44.027,44 40.027,44 36.027,44 38.025,38.914 	"/>
</g>
</svg>
